…
    ## Rows: 52179 Columns: 12
    ## ── Column specification ────────────────────────────────────────────────────────
    ## Delimiter: ","
    ## chr (9): uid, victim_last, victim_first, victim_race, victim_age, victim_sex...
    ## dbl (3): reported_date, lat, lon
    ## 
    ## ℹ Use `spec()` to retrieve the full column specification for this data.
    ## ℹ Specify the column types or set `show_col_types = FALSE` to quiet this message.

``` r
homicide_clean
```

    ## # A tibble: 39,693 × 14
    ##   uid        report…¹ victi…² victi…³ victi…⁴ victi…⁵ victi…⁶ city  state    lat
    ##   <chr>         <dbl> <chr>   <chr>   <chr>     <dbl> <chr>   <chr> <chr>  <dbl>
    ## 1 Alb-000003 20100601 SATTER… VIVIANA White        15 Female  Albu… NM    35.086
    ## 2 Alb-000005 20100102 MULA    VIVIAN  White        72 Female  Albu… NM    35.130
    ## 3 Alb-000006 20100126 BOOK    GERALD… White        91 Female  Albu… NM    35.151
    ## 4 Alb-000009 20100130 MARTIN… GUSTAVO White        56 Male    Albu… NM    35.075
    ## 5 Alb-000012 20100218 LUJAN   KEVIN   White        NA Male    Albu… NM    35.077
    ## # … with 39,688 more rows, 4 more variables: lon <dbl>, disposition <chr>,
    ## #   resolved <dbl>, city_state <chr>, and abbreviated variable names
    ## #   ¹​reported_date, ²​victim_last, ³​victim_first, ⁴​victim_race, ⁵​victim_age,
    ## #   ⁶​victim_sex
    ## # ℹ Use `print(n = ...)` to see more rows, and `colnames()` to see all variable names
…
}


homicide_nest = homicide_clean %>% 
  nest(data = -city_state) %>% 
  mutate(estimates = map(data,calc_or)) %>% 
  unnest(estimates) %>% 
  select(city_state, OR, LCL, UCL)

homicide_nest
```

    ## # A tibble: 47 × 4
    ##   city_state           OR     LCL     UCL
    ##   <chr>             <dbl>   <dbl>   <dbl>
    ## 1 Albuquerque, NM 1.7675  0.83066 3.7609 
    ## 2 Atlanta, GA     1.0001  0.68360 1.4631 
    ## 3 Baltimore, MD   0.42551 0.32456 0.55787
    ## 4 Baton Rouge, LA 0.38144 0.20925 0.69531
    ## 5 Birmingham, AL  0.87002 0.57430 1.3180 
    ## # … with 42 more rows
    ## # ℹ Use `print(n = ...)` to see more rows
…
